{ "compressionlevel":-1,
 "height":23,
 "infinite":false,
 "layers":[
        {
         "data":[1, 1, 1, 1, 1, 1, 1, 1, 1, 1, 1, 1, 1, 1, 1, 1, 1, 1, 1, 1, 1, 1, 1, 1, 1, 1, 1, 1, 1, 1, 1, 1, 1, 1, 1, 1, 1, 1, 1, 1, 1, 1, 1, 1, 1, 1, 1, 1, 1, 1, 1, 1, 1, 1, 1, 1, 1, 1, 1, 1, 1, 1, 1, 1, 1, 1, 1, 1, 1, 1, 1, 1, 1, 1, 1, 1, 1, 1, 1, 1, 1, 1, 1, 1, 1, 1, 1, 1, 1, 1, 1, 1, 1, 1, 1, 1, 1, 1, 1, 1, 1, 1, 1, 1, 1, 1, 1, 1, 1, 1, 1, 1, 1, 1, 1, 1, 1, 1, 1, 1, 41, 42, 41, 42, 41, 42, 41, 42, 41, 42, 41, 42, 41, 42, 41, 42, 41, 42, 41, 42, 41, 42, 41, 42, 41, 42, 41, 42, 41, 42, 41, 42, 41, 42, 41, 42, 41, 42, 41, 42, 61, 62, 61, 62, 61, 62, 61, 62, 61, 62, 61, 62, 61, 62, 61, 62, 61, 62, 61, 62, 61, 62, 61, 62, 61, 62, 61, 62, 61, 62, 61, 62, 61, 62, 61, 62, 61, 62, 61, 62, 41, 42, 1, 1, 1, 1, 1, 1, 1, 1, 1, 1, 1, 1, 1, 1, 1, 1, 1, 1, 1, 1, 1, 1, 1, 1, 1, 1, 1, 1, 1, 1, 1, 1, 1, 1, 1, 1, 41, 42, 61, 62, 23, 5, 6, 24, 23, 24, 23, 24, 23, 24, 23, 24, 23, 24, 23, 24, 23, 24, 23, 5, 6, 24, 23, 24, 23, 24, 23, 24, 23, 24, 23, 24, 23, 24, 23, 24, 61, 62, 41, 42, 3, 4, 3, 4, 3, 4, 3, 4, 3, 4, 5, 6, 3, 4, 3, 4, 3, 4, 3, 4, 3, 4, 3, 4, 3, 4, 3, 4, 3, 4, 3, 4, 3, 4, 5, 6, 41, 42, 61, 62, 23, 24, 23, 24, 23, 24, 23, 24, 23, 24, 23, 24, 23, 24, 23, 24, 23, 24, 23, 24, 23, 24, 23, 24, 23, 24, 23, 24, 23, 24, 23, 24, 23, 24, 23, 24, 61, 62, 41, 42, 3, 4, 3, 4, 45, 45, 45, 45, 45, 45, 45, 45, 3, 4, 3, 4, 3, 4, 3, 4, 3, 4, 3, 4, 45, 45, 45, 45, 45, 45, 45, 45, 3, 4, 3, 4, 41, 42, 61, 62, 23, 24, 23, 24, 1, 1, 1, 1, 2, 1, 1, 1, 23, 24, 5, 6, 23, 63, 64, 24, 23, 24, 23, 24, 1, 1, 1, 2, 1, 1, 1, 1, 23, 24, 23, 24, 61, 62, 41, 42, 3, 4, 5, 6, 3, 4, 3, 4, 22, 4, 3, 4, 3, 4, 3, 4, 3, 41, 42, 4, 3, 4, 3, 4, 3, 4, 3, 22, 3, 4, 3, 4, 3, 4, 3, 4, 41, 42, 61, 62, 23, 24, 23, 24, 45, 45, 45, 45, 45, 45, 45, 45, 45, 45, 45, 45, 45, 61, 62, 45, 45, 45, 45, 45, 45, 45, 45, 45, 45, 45, 45, 45, 23, 24, 23, 24, 61, 62, 41, 42, 3, 4, 3, 4, 1, 1, 1, 1, 2, 1, 1, 1, 1, 1, 1, 1, 1, 41, 42, 1, 1, 1, 1, 1, 1, 1, 1, 2, 1, 1, 1, 1, 3, 4, 3, 4, 41, 42, 61, 62, 23, 24, 23, 24, 23, 24, 23, 24, 22, 24, 23, 24, 23, 24, 23, 24, 23, 61, 62, 24, 23, 24, 23, 24, 5, 6, 23, 22, 23, 24, 23, 24, 23, 24, 23, 24, 61, 62, 41, 42, 3, 4, 3, 4, 45, 45, 45, 45, 45, 45, 45, 45, 45, 45, 45, 45, 45, 41, 42, 45, 45, 45, 45, 45, 45, 45, 45, 45, 45, 45, 45, 45, 3, 4, 3, 4, 41, 42, 61, 62, 7, 8, 23, 24, 1, 1, 1, 1, 2, 1, 1, 1, 1, 1, 1, 1, 1, 61, 62, 1, 1, 1, 1, 1, 1, 1, 1, 2, 1, 1, 1, 1, 5, 6, 23, 24, 61, 62, 41, 42, 27, 28, 3, 4, 3, 4, 3, 4, 22, 4, 3, 4, 3, 4, 3, 5, 6, 41, 42, 4, 3, 4, 3, 4, 3, 4, 3, 22, 3, 4, 3, 4, 3, 4, 3, 4, 41, 42, 61, 62, 43, 44, 43, 44, 43, 44, 43, 44, 43, 44, 43, 44, 43, 44, 43, 44, 43, 61, 62, 44, 43, 44, 43, 44, 43, 44, 43, 44, 43, 44, 43, 44, 43, 44, 43, 44, 61, 62, 41, 42, 61, 62, 61, 62, 61, 62, 61, 62, 61, 62, 61, 62, 61, 62, 61, 62, 61, 41, 42, 62, 61, 62, 61, 62, 61, 62, 61, 62, 61, 62, 61, 62, 61, 62, 61, 62, 41, 42, 1, 1, 1, 1, 1, 1, 1, 1, 1, 1, 1, 1, 1, 1, 1, 1, 1, 1, 1, 1, 1, 1, 1, 1, 1, 1, 1, 1, 1, 1, 1, 1, 1, 1, 1, 1, 1, 1, 1, 1, 1, 1, 1, 1, 1, 1, 1, 1, 1, 1, 1, 1, 1, 1, 1, 1, 1, 1, 1, 1, 1, 1, 1, 1, 1, 1, 1, 1, 1, 1, 1, 1, 1, 1, 1, 1, 1, 1, 1, 1, 1, 1, 1, 1, 1, 1, 1, 1, 1, 1, 1, 1, 1, 1, 1, 1, 1, 1, 1, 1, 1, 1, 1, 1, 1, 1, 1, 1, 1, 1, 1, 1, 1, 1, 1, 1, 1, 1, 1, 1],
         "height":23,
         "id":1,
         "name":"Map",
         "opacity":1,
         "type":"tilelayer",
         "visible":true,
         "width":40,
         "x":0,
         "y":0
        }, 
        {
         "data":[0, 0, 0, 0, 0, 0, 0, 0, 0, 0, 0, 0, 0, 0, 0, 0, 0, 0, 0, 0, 0, 0, 0, 0, 0, 0, 0, 0, 0, 0, 0, 0, 0, 0, 0, 0, 0, 0, 0, 0, 0, 0, 0, 0, 0, 0, 0, 0, 0, 0, 0, 0, 0, 0, 0, 0, 0, 0, 0, 0, 0, 0, 0, 0, 0, 0, 0, 0, 0, 0, 0, 0, 0, 0, 0, 0, 0, 0, 0, 0, 0, 0, 0, 0, 0, 0, 0, 0, 0, 0, 0, 0, 0, 0, 0, 0, 0, 0, 0, 0, 0, 0, 0, 0, 0, 0, 0, 0, 0, 0, 0, 0, 0, 0, 0, 0, 0, 0, 0, 0, 0, 0, 0, 0, 0, 0, 0, 0, 0, 0, 0, 0, 0, 0, 0, 0, 0, 0, 0, 0, 0, 0, 0, 0, 0, 0, 0, 0, 0, 0, 0, 0, 0, 0, 0, 0, 0, 0, 0, 0, 0, 0, 0, 0, 0, 0, 0, 0, 0, 0, 0, 0, 0, 0, 0, 0, 0, 0, 0, 0, 0, 0, 0, 0, 0, 0, 0, 0, 0, 0, 0, 0, 0, 0, 0, 0, 0, 0, 0, 0, 0, 0, 0, 0, 0, 0, 0, 0, 0, 0, 0, 0, 0, 0, 0, 0, 0, 0, 0, 0, 0, 0, 0, 0, 0, 0, 0, 0, 0, 0, 0, 0, 0, 0, 0, 0, 0, 0, 0, 0, 0, 0, 0, 0, 0, 0, 0, 0, 0, 0, 0, 0, 0, 0, 0, 0, 0, 0, 0, 0, 0, 0, 0, 0, 0, 0, 0, 0, 0, 0, 0, 0, 0, 0, 0, 0, 0, 0, 0, 0, 0, 0, 0, 0, 0, 0, 0, 0, 0, 0, 0, 0, 0, 0, 0, 0, 0, 0, 0, 0, 0, 0, 0, 0, 0, 0, 0, 0, 0, 0, 0, 0, 0, 0, 0, 0, 0, 0, 0, 0, 0, 0, 0, 0, 0, 0, 21, 21, 21, 21, 21, 21, 21, 21, 0, 0, 0, 0, 0, 0, 0, 0, 0, 0, 0, 0, 21, 21, 21, 21, 21, 21, 21, 21, 0, 0, 0, 0, 0, 0, 0, 0, 0, 0, 0, 0, 0, 0, 0, 0, 0, 0, 0, 0, 0, 0, 0, 0, 0, 0, 0, 0, 0, 0, 0, 0, 0, 0, 0, 0, 0, 0, 0, 0, 0, 0, 0, 0, 0, 0, 0, 0, 0, 0, 0, 0, 0, 0, 0, 0, 0, 0, 0, 0, 0, 0, 0, 0, 0, 0, 0, 0, 0, 0, 0, 0, 0, 0, 0, 0, 0, 0, 0, 0, 0, 0, 0, 0, 0, 0, 0, 0, 0, 0, 0, 0, 0, 0, 0, 0, 0, 0, 0, 0, 0, 0, 0, 0, 0, 0, 0, 0, 0, 0, 0, 0, 0, 0, 0, 0, 0, 0, 0, 0, 0, 0, 0, 0, 0, 0, 0, 0, 0, 0, 0, 0, 0, 0, 0, 0, 0, 0, 0, 0, 0, 0, 0, 0, 0, 0, 0, 0, 0, 0, 0, 0, 0, 0, 0, 0, 0, 0, 0, 0, 0, 0, 0, 0, 0, 0, 0, 0, 0, 0, 0, 0, 0, 0, 0, 0, 0, 0, 0, 0, 0, 0, 0, 0, 0, 0, 0, 0, 0, 0, 0, 0, 0, 0, 0, 0, 0, 0, 0, 0, 0, 0, 0, 0, 0, 0, 0, 0, 0, 0, 0, 0, 0, 0, 0, 0, 0, 0, 0, 0, 0, 0, 0, 0, 0, 0, 0, 0, 0, 0, 0, 0, 0, 0, 0, 0, 0, 0, 0, 0, 0, 0, 0, 0, 0, 0, 0, 0, 0, 0, 0, 0, 0, 0, 0, 0, 0, 0, 0, 0, 0, 0, 0, 0, 0, 0, 0, 0, 0, 0, 0, 0, 0, 0, 0, 0, 0, 0, 0, 0, 0, 0, 0, 0, 0, 0, 0, 0, 0, 0, 0, 0, 0, 0, 0, 0, 0, 0, 0, 0, 0, 0, 0, 0, 0, 0, 0, 0, 0, 0, 0, 0, 0, 0, 0, 0, 0, 0, 0, 0, 0, 0, 0, 0, 0, 0, 0, 0, 0, 0, 0, 0, 21, 21, 21, 21, 21, 21, 21, 21, 21, 21, 21, 21, 21, 0, 0, 21, 21, 21, 21, 21, 21, 21, 21, 21, 21, 21, 21, 21, 0, 0, 0, 0, 0, 0, 0, 0, 0, 0, 0, 0, 0, 0, 0, 0, 0, 0, 0, 0, 0, 0, 0, 0, 0, 0, 0, 0, 0, 0, 0, 0, 0, 0, 0, 0, 0, 0, 0, 0, 0, 0, 0, 0, 0, 0, 0, 0, 0, 0, 0, 0, 0, 0, 0, 0, 0, 0, 0, 0, 0, 0, 0, 0, 0, 0, 0, 0, 0, 0, 0, 0, 0, 0, 0, 0, 0, 0, 0, 0, 0, 0, 0, 0, 0, 0, 0, 0, 0, 0, 0, 0, 0, 0, 0, 0, 0, 0, 0, 0, 0, 0, 0, 0, 0, 0, 0, 0, 0, 0, 0, 0, 0, 0, 0, 0, 0, 0, 0, 0, 0, 0, 0, 0, 0, 0, 0, 0, 0, 0, 0, 0, 0, 0, 0, 0, 0, 0, 0, 0, 0, 0, 0, 0, 0, 0, 0, 0, 0, 0, 0, 0, 0, 0, 0, 0, 0, 0, 0, 0, 0, 0, 0, 0, 0, 0, 0, 0, 0, 0, 0, 0, 0, 0, 0, 0, 0, 0, 0, 0, 0, 0, 0, 0, 0, 0, 0, 0, 0, 0, 0, 0, 0, 0, 0, 0, 0, 0, 0, 0, 0, 0, 0, 0, 0, 0],
         "height":23,
         "id":2,
         "name":"Gold",
         "opacity":1,
         "type":"tilelayer",
         "visible":true,
         "width":40,
         "x":0,
         "y":0
        }, 
        {
         "draworder":"topdown",
         "id":3,
         "name":"Entities",
         "objects":[
                {
                 "height":16,
                 "id":1,
                 "name":"Player",
                 "rotation":0,
                 "type":"",
                 "visible":true,
                 "width":16,
                 "x":16,
                 "y":128
                }, 
                {
                 "height":16,
                 "id":24,
                 "name":"Snake",
                 "rotation":0,
                 "type":"",
                 "visible":true,
                 "width":16,
                 "x":64,
                 "y":104
                }, 
                {
                 "height":16,
                 "id":26,
                 "name":"Snake",
                 "rotation":0,
                 "type":"",
                 "visible":true,
                 "width":16,
                 "x":184,
                 "y":80
                }, 
                {
                 "height":16,
                 "id":25,
                 "name":"Snake",
                 "properties":[
                        {
                         "name":"dir",
                         "type":"string",
                         "value":"left"
                        }],
                 "rotation":0,
                 "type":"",
                 "visible":true,
                 "width":16,
                 "x":240,
                 "y":104
                }, 
                {
                 "height":16,
                 "id":27,
                 "name":"Snake",
                 "properties":[
                        {
                         "name":"dir",
                         "type":"string",
                         "value":"left"
                        }],
                 "rotation":0,
                 "type":"",
                 "visible":true,
                 "width":16,
                 "x":120,
                 "y":80
                }],
         "opacity":1,
         "type":"objectgroup",
         "visible":true,
         "x":0,
         "y":0
        }],
 "nextlayerid":4,
 "nextobjectid":28,
 "orientation":"orthogonal",
 "renderorder":"right-down",
 "tiledversion":"1.7.2",
 "tileheight":8,
 "tilesets":[
        {
         "columns":20,
         "firstgid":1,
         "image":"tiles.png",
         "imageheight":48,
         "imagewidth":160,
         "margin":0,
         "name":"Map",
         "spacing":0,
         "tilecount":120,
         "tileheight":8,
         "tilewidth":8
        }],
 "tilewidth":8,
 "type":"map",
 "version":"1.6",
 "width":40
}