{ "compressionlevel":-1,
 "height":23,
 "infinite":false,
 "layers":[
        {
         "data":[51, 52, 51, 52, 51, 52, 51, 52, 51, 52, 51, 52, 51, 52, 51, 52, 51, 52, 51, 52, 51, 52, 51, 52, 51, 52, 51, 52, 51, 52, 51, 52, 51, 52, 51, 52, 51, 52, 51, 52, 71, 72, 71, 72, 71, 72, 71, 72, 71, 72, 71, 72, 71, 72, 71, 72, 71, 72, 71, 72, 71, 72, 71, 72, 71, 72, 71, 72, 71, 72, 71, 72, 71, 72, 71, 72, 71, 72, 71, 72, 51, 52, 1, 1, 1, 1, 1, 1, 1, 1, 1, 1, 1, 1, 1, 1, 1, 1, 1, 1, 1, 1, 1, 1, 1, 1, 1, 1, 1, 1, 1, 1, 1, 1, 1, 1, 1, 1, 51, 52, 71, 72, 23, 24, 23, 24, 23, 24, 23, 24, 23, 5, 6, 24, 23, 24, 23, 24, 23, 24, 23, 24, 23, 24, 5, 6, 23, 24, 23, 24, 23, 24, 23, 24, 23, 24, 23, 24, 71, 72, 51, 52, 3, 4, 3, 4, 3, 4, 3, 4, 3, 4, 3, 4, 3, 4, 3, 4, 3, 4, 3, 4, 3, 4, 3, 4, 3, 4, 3, 4, 3, 4, 3, 5, 6, 4, 3, 4, 51, 52, 71, 72, 23, 24, 23, 24, 23, 24, 23, 24, 23, 24, 23, 24, 23, 24, 23, 24, 23, 5, 6, 24, 23, 24, 23, 24, 23, 24, 23, 24, 23, 24, 23, 24, 23, 24, 23, 24, 71, 72, 51, 52, 3, 4, 5, 6, 53, 54, 50, 50, 50, 50, 3, 4, 3, 4, 3, 4, 3, 4, 3, 4, 3, 4, 3, 4, 3, 4, 50, 50, 50, 50, 53, 54, 3, 4, 3, 4, 51, 52, 71, 72, 23, 24, 23, 24, 71, 72, 1, 1, 1, 1, 23, 24, 5, 6, 23, 24, 23, 24, 23, 24, 23, 24, 23, 24, 5, 6, 1, 1, 1, 1, 71, 72, 23, 24, 23, 24, 71, 72, 51, 52, 3, 4, 3, 4, 51, 52, 3, 4, 3, 4, 3, 4, 3, 4, 3, 4, 3, 4, 3, 4, 5, 6, 3, 4, 3, 4, 3, 4, 3, 4, 51, 52, 3, 4, 3, 4, 51, 52, 71, 72, 23, 24, 23, 24, 71, 72, 50, 50, 50, 50, 50, 50, 53, 54, 50, 50, 50, 50, 50, 50, 50, 50, 53, 54, 50, 50, 50, 50, 50, 50, 71, 72, 23, 24, 5, 6, 71, 72, 51, 52, 3, 4, 3, 4, 1, 1, 1, 2, 1, 1, 1, 1, 71, 72, 1, 1, 1, 1, 1, 1, 1, 1, 71, 72, 1, 1, 1, 1, 2, 1, 1, 1, 3, 4, 3, 4, 51, 52, 71, 72, 5, 6, 23, 24, 23, 24, 23, 22, 23, 24, 23, 24, 51, 52, 23, 24, 23, 24, 23, 24, 23, 24, 51, 52, 5, 6, 23, 24, 22, 24, 23, 24, 23, 24, 23, 24, 71, 72, 51, 52, 3, 4, 3, 4, 53, 54, 50, 50, 50, 50, 50, 50, 71, 72, 3, 4, 3, 4, 5, 6, 3, 4, 71, 72, 50, 50, 50, 50, 50, 50, 53, 54, 3, 4, 3, 4, 51, 52, 71, 72, 23, 24, 23, 24, 71, 72, 1, 1, 1, 1, 1, 1, 1, 1, 23, 24, 23, 24, 23, 24, 23, 24, 1, 1, 1, 1, 1, 1, 1, 1, 71, 72, 5, 6, 23, 24, 71, 72, 51, 52, 3, 4, 5, 6, 51, 52, 5, 6, 3, 4, 3, 4, 3, 4, 5, 6, 3, 4, 3, 4, 3, 4, 3, 4, 3, 4, 3, 4, 3, 4, 51, 52, 3, 4, 3, 4, 51, 52, 71, 72, 23, 24, 23, 24, 71, 72, 50, 50, 50, 50, 50, 50, 50, 53, 54, 53, 73, 74, 73, 74, 54, 53, 54, 50, 50, 50, 50, 50, 50, 50, 71, 72, 23, 24, 23, 24, 71, 72, 51, 52, 3, 4, 3, 4, 1, 1, 1, 1, 1, 2, 1, 1, 1, 71, 72, 1, 1, 1, 1, 1, 1, 71, 72, 1, 1, 1, 2, 1, 1, 1, 1, 1, 3, 4, 5, 6, 51, 52, 71, 72, 23, 24, 23, 24, 23, 24, 23, 24, 23, 22, 23, 24, 23, 51, 52, 5, 6, 24, 23, 24, 23, 51, 52, 24, 23, 24, 22, 24, 5, 6, 23, 24, 23, 24, 23, 24, 71, 72, 51, 52, 3, 4, 3, 4, 50, 50, 50, 50, 50, 50, 50, 23, 3, 71, 72, 4, 3, 4, 3, 4, 3, 71, 72, 4, 3, 50, 50, 50, 50, 50, 50, 50, 3, 4, 3, 4, 51, 52, 71, 72, 23, 11, 12, 24, 1, 2, 1, 1, 1, 1, 1, 3, 23, 46, 47, 24, 23, 24, 5, 6, 23, 46, 47, 24, 23, 1, 1, 1, 1, 1, 2, 1, 23, 24, 23, 24, 71, 72, 51, 52, 3, 31, 32, 4, 3, 22, 3, 4, 3, 4, 3, 4, 3, 66, 67, 4, 3, 4, 3, 4, 3, 66, 67, 5, 6, 4, 3, 4, 3, 4, 22, 4, 5, 6, 3, 4, 51, 52, 71, 72, 53, 54, 53, 54, 53, 54, 53, 54, 53, 54, 53, 54, 53, 54, 53, 54, 53, 54, 53, 54, 53, 54, 53, 54, 53, 54, 53, 54, 53, 54, 53, 54, 53, 54, 53, 54, 71, 72, 51, 52, 71, 72, 71, 72, 71, 72, 71, 72, 71, 72, 71, 72, 71, 72, 71, 72, 71, 72, 71, 72, 71, 72, 71, 72, 71, 72, 71, 72, 71, 72, 71, 72, 71, 72, 71, 72, 51, 52],
         "height":23,
         "id":1,
         "name":"Map",
         "opacity":1,
         "type":"tilelayer",
         "visible":true,
         "width":40,
         "x":0,
         "y":0
        }, 
        {
         "data":[0, 0, 0, 0, 0, 0, 0, 0, 0, 0, 0, 0, 0, 0, 0, 0, 0, 0, 0, 0, 0, 0, 0, 0, 0, 0, 0, 0, 0, 0, 0, 0, 0, 0, 0, 0, 0, 0, 0, 0, 0, 0, 0, 0, 0, 0, 0, 0, 0, 0, 0, 0, 0, 0, 0, 0, 0, 0, 0, 0, 0, 0, 0, 0, 0, 0, 0, 0, 0, 0, 0, 0, 0, 0, 0, 0, 0, 0, 0, 0, 0, 0, 0, 0, 0, 0, 0, 0, 0, 0, 0, 0, 0, 0, 0, 0, 0, 0, 0, 0, 0, 0, 0, 0, 0, 0, 0, 0, 0, 0, 0, 0, 0, 0, 0, 0, 0, 0, 0, 0, 0, 0, 0, 0, 0, 0, 0, 0, 0, 0, 0, 0, 0, 0, 0, 0, 0, 0, 0, 0, 0, 0, 0, 0, 0, 0, 0, 0, 0, 0, 0, 0, 0, 0, 0, 0, 0, 0, 0, 0, 0, 0, 0, 0, 0, 0, 0, 0, 0, 0, 0, 0, 0, 0, 0, 0, 0, 0, 0, 0, 0, 0, 0, 0, 0, 0, 0, 0, 0, 0, 0, 0, 0, 0, 0, 0, 0, 0, 0, 0, 0, 0, 0, 0, 0, 0, 0, 0, 0, 0, 0, 0, 0, 0, 0, 0, 0, 0, 0, 0, 0, 0, 0, 0, 0, 0, 0, 0, 0, 0, 0, 0, 0, 0, 0, 0, 0, 0, 0, 0, 0, 0, 0, 0, 0, 0, 0, 0, 0, 0, 0, 0, 0, 0, 0, 0, 0, 0, 0, 0, 0, 0, 0, 0, 0, 0, 0, 0, 0, 0, 0, 0, 0, 0, 0, 0, 0, 0, 0, 0, 0, 0, 0, 0, 0, 0, 0, 0, 0, 0, 0, 0, 0, 0, 0, 0, 0, 0, 0, 0, 0, 0, 0, 0, 0, 0, 0, 0, 0, 0, 0, 0, 0, 0, 0, 0, 0, 0, 0, 0, 0, 0, 0, 0, 0, 0, 0, 0, 21, 21, 21, 21, 21, 21, 0, 0, 21, 21, 21, 21, 21, 21, 21, 21, 0, 0, 21, 21, 21, 21, 21, 21, 0, 0, 0, 0, 0, 0, 0, 0, 0, 0, 0, 0, 0, 0, 0, 0, 0, 0, 0, 0, 0, 0, 0, 0, 0, 0, 0, 0, 0, 0, 0, 0, 0, 0, 0, 0, 0, 0, 0, 0, 0, 0, 0, 0, 0, 0, 0, 0, 0, 0, 0, 0, 0, 0, 0, 0, 0, 0, 0, 0, 0, 0, 0, 0, 0, 0, 0, 0, 0, 0, 0, 0, 0, 0, 0, 0, 0, 0, 0, 0, 0, 0, 0, 0, 0, 0, 0, 0, 0, 0, 0, 0, 0, 0, 0, 0, 21, 21, 21, 21, 21, 21, 0, 0, 0, 0, 0, 0, 0, 0, 0, 0, 0, 0, 21, 21, 21, 21, 21, 21, 0, 0, 0, 0, 0, 0, 0, 0, 0, 0, 0, 0, 0, 0, 0, 0, 0, 0, 0, 0, 0, 0, 0, 0, 0, 0, 0, 0, 0, 0, 0, 0, 0, 0, 0, 0, 0, 0, 0, 0, 0, 0, 0, 0, 0, 0, 0, 0, 0, 0, 0, 0, 0, 0, 0, 0, 0, 0, 0, 0, 0, 0, 0, 0, 0, 0, 0, 0, 0, 0, 0, 0, 0, 0, 0, 0, 0, 0, 0, 0, 0, 0, 0, 0, 0, 0, 0, 0, 0, 0, 0, 0, 0, 0, 0, 0, 21, 21, 21, 21, 21, 21, 21, 0, 0, 0, 0, 0, 0, 0, 0, 0, 0, 21, 21, 21, 21, 21, 21, 21, 0, 0, 0, 0, 0, 0, 0, 0, 0, 0, 0, 0, 0, 0, 0, 0, 0, 0, 0, 0, 0, 0, 0, 0, 0, 0, 0, 0, 0, 0, 0, 0, 0, 0, 0, 0, 0, 0, 0, 0, 0, 0, 0, 0, 0, 0, 0, 0, 0, 0, 0, 0, 0, 0, 0, 0, 0, 0, 0, 0, 0, 0, 0, 0, 0, 0, 0, 0, 0, 0, 0, 0, 0, 0, 0, 0, 0, 0, 0, 0, 0, 0, 0, 0, 0, 0, 0, 0, 0, 0, 0, 0, 0, 0, 0, 0, 0, 0, 0, 0, 0, 0, 0, 0, 0, 0, 0, 0, 0, 0, 0, 0, 0, 0, 0, 0, 0, 0, 0, 0, 0, 0, 0, 0, 0, 0, 0, 0, 0, 0, 0, 0, 0, 0, 0, 0, 0, 0, 0, 0, 0, 0, 0, 0, 0, 0, 0, 0, 0, 0, 0, 0, 0, 0, 0, 0, 0, 0, 0, 0, 0, 0, 0, 0, 0, 0, 0, 0, 0, 0, 0, 0, 0, 0, 0, 0, 0, 0, 0, 0, 0, 0, 0, 0, 0, 0, 0, 0, 0, 0, 0, 0, 0, 0, 0, 0, 0, 0, 0, 0, 0, 0, 0, 0, 0, 0, 0, 0, 0, 0, 0, 0, 0, 0, 0, 0, 0, 0, 0, 0, 0, 0, 0, 0, 0, 21, 21, 21, 21, 21, 21, 0, 0, 0, 0, 0, 0, 0, 0, 0, 0, 0, 0, 0, 0, 0, 0, 0, 0, 0, 0, 0, 0, 0, 0, 0, 0, 0, 0, 0, 0, 0, 0, 0, 0, 0, 0, 0, 0, 0, 0, 0, 0, 0, 0, 0, 0, 0, 0, 0, 0, 0, 0, 0, 0, 0, 0, 0, 0, 0, 0, 0, 0, 0, 0, 0, 0, 0, 0, 0, 0, 0, 0, 0, 0, 0, 0, 0, 0, 0, 0, 0, 0, 0, 0, 0, 0, 0, 0, 0, 0, 0, 0, 0, 0, 0, 0, 0],
         "height":23,
         "id":2,
         "name":"Gold",
         "opacity":1,
         "type":"tilelayer",
         "visible":true,
         "width":40,
         "x":0,
         "y":0
        }, 
        {
         "draworder":"topdown",
         "id":3,
         "name":"Entities",
         "objects":[
                {
                 "height":16,
                 "id":1,
                 "name":"Player",
                 "rotation":0,
                 "type":"",
                 "visible":true,
                 "width":16,
                 "x":24,
                 "y":152
                }, 
                {
                 "height":16,
                 "id":28,
                 "name":"Bonus",
                 "rotation":0,
                 "type":"",
                 "visible":true,
                 "width":16,
                 "x":64,
                 "y":32
                }, 
                {
                 "height":16,
                 "id":29,
                 "name":"Bonus",
                 "rotation":0,
                 "type":"",
                 "visible":true,
                 "width":16,
                 "x":152,
                 "y":104
                }, 
                {
                 "height":16,
                 "id":40,
                 "name":"GoldKey",
                 "rotation":0,
                 "type":"",
                 "visible":true,
                 "width":16,
                 "x":240,
                 "y":32
                }, 
                {
                 "height":16,
                 "id":30,
                 "name":"Pickaxe",
                 "rotation":0,
                 "type":"",
                 "visible":true,
                 "width":16,
                 "x":256,
                 "y":128
                }, 
                {
                 "height":16,
                 "id":31,
                 "name":"Time",
                 "rotation":0,
                 "type":"",
                 "visible":true,
                 "width":16,
                 "x":48,
                 "y":128
                }, 
                {
                 "height":16,
                 "id":32,
                 "name":"Snake",
                 "rotation":0,
                 "type":"",
                 "visible":true,
                 "width":16,
                 "x":80,
                 "y":104
                }, 
                {
                 "height":16,
                 "id":34,
                 "name":"Bones",
                 "rotation":0,
                 "type":"",
                 "visible":true,
                 "width":16,
                 "x":80,
                 "y":80
                }, 
                {
                 "height":16,
                 "id":38,
                 "name":"Old",
                 "rotation":0,
                 "type":"",
                 "visible":true,
                 "width":16,
                 "x":80,
                 "y":56
                }, 
                {
                 "height":16,
                 "id":36,
                 "name":"Bat",
                 "rotation":0,
                 "type":"",
                 "visible":true,
                 "width":16,
                 "x":112,
                 "y":32
                }, 
                {
                 "height":16,
                 "id":33,
                 "name":"Snake",
                 "properties":[
                        {
                         "name":"dir",
                         "type":"string",
                         "value":"left"
                        }],
                 "rotation":0,
                 "type":"",
                 "visible":true,
                 "width":16,
                 "x":224,
                 "y":104
                }, 
                {
                 "height":16,
                 "id":35,
                 "name":"Bones",
                 "properties":[
                        {
                         "name":"dir",
                         "type":"string",
                         "value":"left"
                        }],
                 "rotation":0,
                 "type":"",
                 "visible":true,
                 "width":16,
                 "x":224,
                 "y":80
                }, 
                {
                 "height":16,
                 "id":39,
                 "name":"Old",
                 "properties":[
                        {
                         "name":"dir",
                         "type":"string",
                         "value":"left"
                        }],
                 "rotation":0,
                 "type":"",
                 "visible":true,
                 "width":16,
                 "x":224,
                 "y":56
                }, 
                {
                 "height":16,
                 "id":37,
                 "name":"Bat",
                 "properties":[
                        {
                         "name":"dir",
                         "type":"string",
                         "value":"left"
                        }],
                 "rotation":0,
                 "type":"",
                 "visible":true,
                 "width":16,
                 "x":192,
                 "y":32
                }],
         "opacity":1,
         "type":"objectgroup",
         "visible":true,
         "x":0,
         "y":0
        }],
 "nextlayerid":4,
 "nextobjectid":41,
 "orientation":"orthogonal",
 "renderorder":"right-down",
 "tiledversion":"1.7.2",
 "tileheight":8,
 "tilesets":[
        {
         "columns":20,
         "firstgid":1,
         "image":"tiles.png",
         "imageheight":48,
         "imagewidth":160,
         "margin":0,
         "name":"Map",
         "spacing":0,
         "tilecount":120,
         "tileheight":8,
         "tilewidth":8
        }],
 "tilewidth":8,
 "type":"map",
 "version":"1.6",
 "width":40
}