{ "compressionlevel":-1,
 "height":23,
 "infinite":false,
 "layers":[
        {
         "data":[56, 57, 56, 57, 56, 57, 56, 57, 56, 57, 56, 57, 56, 57, 56, 57, 56, 57, 56, 57, 56, 57, 56, 57, 56, 57, 56, 57, 56, 57, 56, 57, 56, 57, 56, 57, 56, 57, 56, 57, 76, 77, 76, 77, 76, 77, 76, 77, 76, 77, 76, 77, 76, 77, 76, 77, 76, 77, 76, 77, 76, 77, 76, 77, 76, 77, 76, 77, 76, 77, 76, 77, 76, 77, 76, 77, 76, 77, 76, 77, 56, 57, 1, 1, 1, 1, 1, 1, 1, 1, 1, 1, 1, 1, 1, 1, 1, 1, 1, 1, 1, 1, 1, 1, 1, 1, 1, 1, 1, 1, 1, 1, 1, 1, 1, 1, 1, 1, 56, 57, 76, 77, 23, 5, 6, 24, 23, 24, 23, 24, 23, 24, 23, 24, 23, 24, 23, 24, 23, 5, 6, 24, 23, 24, 23, 24, 23, 24, 23, 24, 23, 24, 5, 6, 23, 24, 23, 24, 76, 77, 56, 57, 3, 4, 3, 4, 3, 4, 3, 4, 3, 4, 3, 4, 3, 4, 3, 4, 3, 4, 3, 4, 3, 4, 3, 4, 3, 4, 3, 4, 3, 4, 3, 4, 3, 4, 3, 4, 56, 57, 76, 77, 23, 24, 23, 24, 23, 24, 23, 24, 23, 24, 23, 24, 23, 24, 23, 24, 23, 24, 23, 24, 23, 24, 23, 24, 5, 6, 23, 24, 23, 24, 23, 24, 23, 24, 5, 6, 76, 77, 56, 57, 3, 4, 3, 4, 3, 4, 5, 6, 3, 4, 55, 55, 55, 55, 55, 55, 3, 4, 3, 4, 55, 55, 55, 55, 55, 55, 3, 4, 3, 4, 3, 4, 3, 4, 3, 4, 56, 57, 76, 77, 23, 24, 23, 24, 23, 24, 23, 24, 23, 24, 1, 1, 1, 1, 1, 13, 23, 24, 23, 24, 13, 1, 1, 1, 1, 1, 23, 24, 23, 24, 23, 24, 23, 24, 23, 24, 76, 77, 56, 57, 3, 4, 3, 4, 3, 4, 3, 4, 3, 4, 3, 4, 3, 4, 3, 33, 3, 4, 3, 4, 33, 4, 3, 4, 3, 4, 3, 4, 3, 5, 6, 4, 3, 4, 3, 4, 56, 57, 76, 77, 23, 5, 6, 24, 23, 24, 23, 24, 23, 24, 23, 24, 23, 24, 55, 55, 55, 55, 55, 55, 55, 55, 23, 24, 5, 6, 23, 24, 23, 24, 23, 24, 23, 24, 23, 24, 76, 77, 56, 57, 3, 4, 3, 4, 3, 4, 3, 4, 3, 4, 3, 4, 3, 4, 1, 13, 1, 1, 1, 1, 13, 1, 3, 4, 3, 4, 3, 4, 3, 4, 3, 4, 3, 4, 3, 4, 56, 57, 76, 77, 23, 24, 23, 24, 23, 24, 23, 24, 23, 24, 23, 24, 23, 24, 23, 33, 5, 6, 23, 24, 33, 24, 23, 24, 23, 24, 23, 24, 23, 24, 23, 24, 23, 24, 23, 24, 76, 77, 56, 57, 3, 4, 3, 4, 58, 59, 55, 55, 55, 55, 55, 55, 55, 55, 55, 55, 3, 4, 3, 4, 55, 55, 55, 55, 55, 55, 55, 55, 55, 55, 58, 59, 3, 4, 3, 4, 56, 57, 76, 77, 23, 24, 23, 24, 76, 77, 1, 1, 1, 1, 1, 1, 1, 1, 1, 1, 23, 24, 23, 24, 1, 1, 1, 1, 1, 1, 1, 1, 1, 1, 76, 77, 23, 24, 5, 6, 76, 77, 56, 57, 3, 4, 5, 6, 56, 57, 3, 4, 3, 4, 3, 4, 3, 4, 3, 4, 3, 4, 3, 4, 3, 4, 3, 4, 3, 4, 3, 4, 3, 4, 56, 57, 3, 4, 3, 4, 56, 57, 76, 77, 23, 24, 23, 24, 76, 77, 55, 55, 55, 55, 58, 59, 23, 24, 23, 24, 23, 24, 23, 24, 23, 24, 23, 24, 58, 59, 55, 55, 55, 55, 76, 77, 23, 24, 23, 24, 76, 77, 56, 57, 3, 4, 3, 4, 1, 1, 1, 1, 1, 1, 76, 77, 3, 4, 3, 4, 3, 4, 5, 6, 3, 4, 3, 4, 76, 77, 1, 1, 1, 1, 1, 1, 3, 4, 3, 4, 56, 57, 76, 77, 23, 24, 23, 24, 23, 24, 23, 24, 23, 24, 56, 57, 4, 3, 4, 3, 4, 3, 4, 3, 4, 3, 4, 3, 56, 57, 23, 24, 23, 24, 23, 24, 5, 6, 23, 24, 76, 77, 56, 57, 3, 4, 3, 4, 55, 55, 55, 55, 55, 55, 76, 77, 24, 23, 24, 23, 24, 23, 24, 23, 24, 23, 24, 23, 76, 77, 55, 55, 55, 55, 55, 55, 3, 4, 3, 4, 56, 57, 76, 77, 5, 6, 4, 24, 1, 13, 1, 1, 13, 1, 1, 1, 4, 3, 5, 6, 4, 3, 4, 3, 4, 3, 4, 3, 1, 1, 1, 13, 1, 1, 13, 1, 23, 14, 15, 24, 76, 77, 56, 57, 3, 23, 24, 4, 3, 33, 3, 4, 33, 4, 3, 23, 24, 23, 24, 23, 24, 23, 24, 23, 24, 23, 5, 6, 24, 4, 3, 33, 3, 4, 33, 4, 3, 34, 35, 4, 56, 57, 76, 77, 58, 59, 58, 59, 58, 59, 58, 59, 58, 59, 58, 59, 30, 29, 30, 29, 30, 29, 30, 29, 30, 29, 30, 29, 58, 59, 58, 59, 58, 59, 58, 59, 58, 59, 58, 59, 76, 77, 56, 57, 76, 77, 76, 77, 76, 77, 76, 77, 76, 77, 76, 77, 104, 103, 104, 103, 104, 103, 104, 103, 104, 103, 104, 103, 76, 77, 76, 77, 76, 77, 76, 77, 76, 77, 76, 77, 56, 57],
         "height":23,
         "id":1,
         "name":"Map",
         "opacity":1,
         "type":"tilelayer",
         "visible":true,
         "width":40,
         "x":0,
         "y":0
        }, 
        {
         "data":[0, 0, 0, 0, 0, 0, 0, 0, 0, 0, 0, 0, 0, 0, 0, 0, 0, 0, 0, 0, 0, 0, 0, 0, 0, 0, 0, 0, 0, 0, 0, 0, 0, 0, 0, 0, 0, 0, 0, 0, 0, 0, 0, 0, 0, 0, 0, 0, 0, 0, 0, 0, 0, 0, 0, 0, 0, 0, 0, 0, 0, 0, 0, 0, 0, 0, 0, 0, 0, 0, 0, 0, 0, 0, 0, 0, 0, 0, 0, 0, 0, 0, 0, 0, 0, 0, 0, 0, 0, 0, 0, 0, 0, 0, 0, 0, 0, 0, 0, 0, 0, 0, 0, 0, 0, 0, 0, 0, 0, 0, 0, 0, 0, 0, 0, 0, 0, 0, 0, 0, 0, 0, 0, 0, 0, 0, 0, 0, 0, 0, 0, 0, 0, 0, 0, 0, 0, 0, 0, 0, 0, 0, 0, 0, 0, 0, 0, 0, 0, 0, 0, 0, 0, 0, 0, 0, 0, 0, 0, 0, 0, 0, 0, 0, 0, 0, 0, 0, 0, 0, 0, 0, 0, 0, 0, 0, 0, 0, 0, 0, 0, 0, 0, 0, 0, 0, 0, 0, 0, 0, 0, 0, 0, 0, 0, 0, 0, 0, 0, 0, 0, 0, 0, 0, 0, 0, 0, 0, 0, 0, 0, 0, 21, 21, 21, 21, 21, 21, 0, 0, 0, 0, 21, 21, 21, 21, 21, 21, 0, 0, 0, 0, 0, 0, 0, 0, 0, 0, 0, 0, 0, 0, 0, 0, 0, 0, 0, 0, 0, 0, 0, 0, 0, 0, 0, 0, 0, 0, 0, 0, 0, 0, 0, 0, 0, 0, 0, 0, 0, 0, 0, 0, 0, 0, 0, 0, 0, 0, 0, 0, 0, 0, 0, 0, 0, 0, 0, 0, 0, 0, 0, 0, 0, 0, 0, 0, 0, 0, 0, 0, 0, 0, 0, 0, 0, 0, 0, 0, 0, 0, 0, 0, 0, 0, 0, 0, 0, 0, 0, 0, 0, 0, 0, 0, 0, 0, 0, 0, 0, 0, 0, 0, 0, 0, 0, 0, 21, 21, 21, 21, 21, 21, 21, 21, 0, 0, 0, 0, 0, 0, 0, 0, 0, 0, 0, 0, 0, 0, 0, 0, 0, 0, 0, 0, 0, 0, 0, 0, 0, 0, 0, 0, 0, 0, 0, 0, 0, 0, 0, 0, 0, 0, 0, 0, 0, 0, 0, 0, 0, 0, 0, 0, 0, 0, 0, 0, 0, 0, 0, 0, 0, 0, 0, 0, 0, 0, 0, 0, 0, 0, 0, 0, 0, 0, 0, 0, 0, 0, 0, 0, 0, 0, 0, 0, 0, 0, 0, 0, 0, 0, 0, 0, 0, 0, 0, 0, 0, 0, 0, 0, 0, 0, 0, 0, 0, 0, 0, 0, 0, 0, 0, 0, 0, 0, 0, 0, 0, 0, 0, 0, 0, 0, 0, 0, 0, 0, 0, 0, 0, 0, 0, 0, 0, 0, 0, 0, 0, 0, 0, 0, 0, 0, 0, 0, 0, 0, 0, 0, 0, 0, 0, 0, 0, 0, 0, 0, 0, 0, 0, 0, 0, 0, 0, 0, 0, 0, 0, 0, 0, 0, 0, 0, 0, 0, 0, 0, 0, 0, 0, 0, 0, 0, 0, 0, 0, 0, 0, 0, 0, 0, 0, 0, 0, 0, 0, 0, 0, 0, 0, 0, 0, 0, 0, 0, 0, 0, 0, 0, 0, 0, 0, 0, 0, 0, 0, 0, 0, 0, 0, 0, 0, 0, 0, 0, 0, 0, 0, 0, 21, 21, 21, 21, 21, 21, 0, 0, 0, 0, 0, 0, 0, 0, 0, 0, 0, 0, 21, 21, 21, 21, 21, 21, 0, 0, 0, 0, 0, 0, 0, 0, 0, 0, 0, 0, 0, 0, 0, 0, 0, 0, 0, 0, 0, 0, 0, 0, 0, 0, 0, 0, 0, 0, 0, 0, 0, 0, 0, 0, 0, 0, 0, 0, 0, 0, 0, 0, 0, 0, 0, 0, 0, 0, 0, 0, 0, 0, 0, 0, 0, 0, 0, 0, 0, 0, 0, 0, 0, 0, 0, 0, 0, 0, 0, 0, 0, 0, 0, 0, 0, 0, 0, 0, 0, 0, 0, 0, 0, 0, 0, 0, 0, 0, 0, 0, 0, 0, 21, 21, 21, 21, 21, 21, 0, 0, 0, 0, 0, 0, 0, 0, 0, 0, 0, 0, 0, 0, 0, 0, 21, 21, 21, 21, 21, 21, 0, 0, 0, 0, 0, 0, 0, 0, 0, 0, 0, 0, 0, 0, 0, 0, 0, 0, 0, 0, 0, 0, 0, 0, 0, 0, 0, 0, 0, 0, 0, 0, 0, 0, 0, 0, 0, 0, 0, 0, 0, 0, 0, 0, 0, 0, 0, 0, 0, 0, 0, 0, 0, 0, 0, 0, 0, 0, 0, 0, 0, 0, 0, 0, 0, 0, 0, 0, 0, 0, 0, 0, 0, 0, 0, 0, 0, 0, 0, 0, 0, 0, 0, 0, 0, 0, 0, 0, 0, 0, 0, 0, 21, 21, 21, 21, 21, 21, 0, 0, 0, 0, 0, 0, 0, 0, 0, 0, 0, 0, 0, 0, 0, 0, 21, 21, 21, 21, 21, 21, 0, 0, 0, 0, 0, 0, 0, 0, 0, 0, 0, 0, 0, 0, 0, 0, 0, 0, 0, 0, 0, 0, 0, 0, 0, 0, 0, 0, 0, 0, 0, 0, 0, 0, 0, 0, 0, 0, 0, 0, 0, 0, 0, 0, 0, 0, 0, 0, 0, 0, 0, 0, 0, 0, 0, 0, 0, 0, 0, 0, 0, 0, 0, 0, 0, 0, 0, 0, 0, 0, 0, 0, 0, 0, 0, 0, 0, 0, 0, 0, 0, 0, 0, 0, 0, 0],
         "height":23,
         "id":2,
         "name":"Gold",
         "opacity":1,
         "type":"tilelayer",
         "visible":true,
         "width":40,
         "x":0,
         "y":0
        }, 
        {
         "draworder":"topdown",
         "id":3,
         "name":"Entities",
         "objects":[
                {
                 "height":16,
                 "id":1,
                 "name":"Player",
                 "properties":[
                        {
                         "name":"dir",
                         "type":"string",
                         "value":"left"
                        }],
                 "rotation":0,
                 "type":"",
                 "visible":true,
                 "width":16,
                 "x":280,
                 "y":152
                }, 
                {
                 "height":16,
                 "id":28,
                 "name":"Bat",
                 "properties":[
                        {
                         "name":"dir",
                         "type":"string",
                         "value":"left"
                        }],
                 "rotation":0,
                 "type":"",
                 "visible":true,
                 "width":16,
                 "x":176,
                 "y":120
                }, 
                {
                 "height":16,
                 "id":31,
                 "name":"Bat",
                 "rotation":0,
                 "type":"",
                 "visible":true,
                 "width":16,
                 "x":128,
                 "y":120
                }, 
                {
                 "height":16,
                 "id":29,
                 "name":"Bones",
                 "properties":[
                        {
                         "name":"dir",
                         "type":"string",
                         "value":"left"
                        }],
                 "rotation":0,
                 "type":"",
                 "visible":true,
                 "width":16,
                 "x":240,
                 "y":80
                }, 
                {
                 "height":16,
                 "id":37,
                 "name":"Bones",
                 "properties":[
                        {
                         "name":"dir",
                         "type":"string",
                         "value":"left"
                        }],
                 "rotation":0,
                 "type":"",
                 "visible":true,
                 "width":16,
                 "x":240,
                 "y":128
                }, 
                {
                 "height":16,
                 "id":32,
                 "name":"Bonus",
                 "rotation":0,
                 "type":"",
                 "visible":true,
                 "width":16,
                 "x":208,
                 "y":152
                }, 
                {
                 "height":16,
                 "id":33,
                 "name":"Pickaxe",
                 "rotation":0,
                 "type":"",
                 "visible":true,
                 "width":16,
                 "x":96,
                 "y":152
                }, 
                {
                 "height":16,
                 "id":35,
                 "name":"Bonus",
                 "rotation":0,
                 "type":"",
                 "visible":true,
                 "width":16,
                 "x":176,
                 "y":80
                }, 
                {
                 "height":16,
                 "id":30,
                 "name":"Bones",
                 "rotation":0,
                 "type":"",
                 "visible":true,
                 "width":16,
                 "x":64,
                 "y":80
                }, 
                {
                 "height":16,
                 "id":36,
                 "name":"Bones",
                 "rotation":0,
                 "type":"",
                 "visible":true,
                 "width":16,
                 "x":64,
                 "y":128
                }],
         "opacity":1,
         "type":"objectgroup",
         "visible":true,
         "x":0,
         "y":0
        }],
 "nextlayerid":4,
 "nextobjectid":38,
 "orientation":"orthogonal",
 "renderorder":"right-down",
 "tiledversion":"1.7.2",
 "tileheight":8,
 "tilesets":[
        {
         "columns":20,
         "firstgid":1,
         "image":"tiles.png",
         "imageheight":48,
         "imagewidth":160,
         "margin":0,
         "name":"Map",
         "spacing":0,
         "tilecount":120,
         "tileheight":8,
         "tilewidth":8
        }],
 "tilewidth":8,
 "type":"map",
 "version":"1.6",
 "width":40
}